code OA,numero INSEE commune,identifiant parcelle,numero parcelle,section cadastre,annee cadastre,nom commune,nom departement,lieu dit adresse
4200,75101,XXXX,42,ZX,,Paris,Ile-de-France,1 rue de l'Église
4200,59350,YY55,55,YY,,Lille,Nord,Patis du tertre
4201,59350,YY55,55,YY,,Lille,Nord,Patis du tertre
