code OA,region,type operation,intitule operation,operateur,responsable operation,date debut terrain,date fin terrain,chronologie generale,identifiant document georeferencement,notice scientifique,chronologie generale 2
4201,Bourgogne,Fouille programmée,Oppìdum de Paris 2,L'opérateur,,2000/01/31,2002/12/31,Age du Fer,,,modern
4200,Bourgogne,Fouille programmée,Oppìdum de Paris,L'opérateur,Jean Sui-Resp'on Sablé,2000/01/22,2002/12/31,Age du Fer & Gallo-Romain & Néolithik & Moderne,,,
